{"errno":0,"data":{"total":14,"pages":5,"pageSize":3,"page":1,"list":[{"id":434601,"skuRetVo":null,"sharerId":1914,"customerId":null,"orderId":null,"rebate":null,"gmtCreate":"2020-12-07T21:47:21"},{"id":434725,"skuRetVo":null,"sharerId":1317,"customerId":null,"orderId":null,"rebate":null,"gmtCreate":"2020-12-07T21:47:21"},{"id":434927,"skuRetVo":null,"sharerId":4602,"customerId":null,"orderId":null,"rebate":null,"gmtCreate":"2020-12-07T21:47:21"}]},"errmsg":"成功"}