{"errno":0,"data":{"total":17,"pages":6,"pageSize":3,"page":1,"list":[{"id":303159,"shopId":0,"goodSkuId":678,"beginTime":"2020-12-07T21:47:19","endTime":"2021-10-10T23:23:23","state":null},{"id":303563,"shopId":0,"goodSkuId":678,"beginTime":"2020-12-07T21:47:19","endTime":"2021-10-10T23:23:23","state":null},{"id":303706,"shopId":0,"goodSkuId":678,"beginTime":"2020-12-07T21:47:19","endTime":"2021-10-10T23:23:23","state":null}]},"errmsg":"成功"}