{"errno":0,"data":{"total":14,"pages":5,"pageSize":3,"page":1,"list":[{"id":442766,"sharerId":1914,"quantity":957,"gmtCreate":"2020-12-07T21:47:20","skuVo":null},{"id":442890,"sharerId":1317,"quantity":532,"gmtCreate":"2020-12-07T21:47:20","skuVo":null},{"id":443092,"sharerId":4602,"quantity":810,"gmtCreate":"2020-12-07T21:47:20","skuVo":null}]},"errmsg":"成功"}